<?xml version="1.0" standalone="no"?>
<!DOCTYPE svg PUBLIC "-//W3C//DTD SVG 20010904//EN"
 "http://www.w3.org/TR/2001/REC-SVG-20010904/DTD/svg10.dtd">
<svg version="1.0" xmlns="http://www.w3.org/2000/svg"
 width="169.000000pt" height="169.000000pt" viewBox="0 0 169.000000 169.000000"
 preserveAspectRatio="xMidYMid meet">
<metadata>
Created by potrace 1.14, written by Peter Selinger 2001-2017
</metadata>
<g transform="translate(0.000000,169.000000) scale(0.100000,-0.100000)"
fill="#000000" stroke="none">
<path d="M360 1580 c0 -4 -6 -7 -12 -7 -23 -1 -41 -8 -58 -23 -10 -8 -29 -24
-43 -35 -13 -11 -23 -23 -20 -27 2 -5 -2 -8 -10 -8 -7 0 -19 -11 -25 -25 -6
-14 -16 -25 -22 -25 -5 0 -9 -3 -8 -7 2 -10 -12 -42 -31 -72 -8 -13 -17 -33
-18 -44 -2 -11 -8 -25 -13 -32 -5 -6 -11 -23 -14 -38 -2 -15 -7 -30 -10 -35
-3 -5 -7 -20 -10 -35 -4 -15 -8 -38 -11 -52 -15 -73 -18 -103 -20 -250 -2
-111 0 -164 8 -174 10 -12 9 -13 -1 -7 -12 7 -12 4 -2 -14 6 -12 9 -28 6 -36
-3 -8 -2 -14 2 -14 5 0 9 -10 9 -22 1 -13 7 -43 13 -68 7 -25 13 -51 13 -57 0
-7 4 -13 9 -13 4 0 7 -3 6 -7 -1 -5 4 -24 11 -43 8 -19 14 -39 15 -43 1 -4 6
-11 11 -15 6 -4 11 -13 13 -21 6 -30 112 -166 112 -145 0 5 6 -1 14 -12 8 -10
18 -19 23 -20 4 0 22 -6 38 -13 43 -18 98 -21 114 -8 12 10 13 9 6 -3 -7 -12
-6 -13 7 -3 8 7 18 10 21 6 4 -3 7 -1 7 6 0 8 6 11 16 7 8 -3 12 -2 9 4 -3 6
0 10 7 10 28 1 154 143 142 161 -3 5 -1 9 4 9 9 0 57 100 53 114 -1 4 4 14 10
22 6 8 8 14 4 14 -4 0 -2 7 5 15 7 8 10 15 6 15 -3 0 -1 12 5 27 6 16 13 44
15 63 3 19 7 46 11 60 8 38 11 360 2 360 -4 0 -6 8 -5 17 2 10 -1 33 -5 53 -4
19 -10 50 -14 67 -3 18 -17 63 -31 100 -14 38 -28 78 -31 91 -3 12 -9 22 -14
22 -5 0 -9 7 -9 15 0 8 -5 15 -12 15 -6 0 -8 3 -5 7 7 7 -52 84 -93 121 -14
12 -35 25 -47 28 -13 4 -23 9 -23 13 0 9 -8 10 -77 14 -29 2 -53 0 -53 -3z"/>
<path d="M1220 1580 c0 -3 -10 -7 -22 -7 -13 -1 -24 -7 -26 -13 -2 -5 -10 -10
-18 -10 -8 0 -14 -5 -14 -12 0 -6 -3 -9 -6 -5 -3 3 -20 -9 -36 -26 -31 -34
-113 -149 -111 -157 0 -3 -4 -16 -10 -30 -6 -14 -11 -27 -12 -30 -1 -3 -6 -20
-10 -37 -4 -18 -11 -33 -16 -33 -4 0 -8 -8 -7 -17 0 -10 -3 -29 -6 -43 -10
-39 -18 -82 -23 -120 -8 -56 -9 -360 -1 -360 4 0 5 -9 3 -20 -2 -11 0 -22 5
-25 5 -3 7 -12 4 -20 -3 -8 -2 -20 2 -27 4 -7 9 -19 10 -28 9 -61 18 -90 35
-122 5 -10 9 -25 9 -33 0 -8 5 -15 12 -15 6 0 8 -3 5 -7 -4 -3 3 -21 14 -40
11 -18 18 -33 14 -33 -3 0 3 -10 15 -22 11 -12 20 -27 20 -34 0 -7 9 -16 20
-19 11 -4 18 -10 15 -15 -3 -5 8 -17 24 -26 17 -10 27 -22 24 -27 -3 -6 -1 -7
5 -3 6 3 17 -1 25 -9 9 -8 25 -15 37 -15 12 0 19 -4 16 -8 -3 -5 18 -7 47 -5
83 5 98 8 108 24 5 8 9 10 9 6 0 -20 91 72 126 128 40 65 75 135 68 135 -4 0
-2 6 4 13 6 7 13 25 16 40 2 15 7 30 10 35 8 13 29 118 30 150 0 12 3 22 7 22
3 0 7 79 7 175 0 104 -4 175 -10 175 -5 0 -7 4 -4 8 6 10 -21 146 -37 187 -6
17 -10 36 -9 43 2 6 -2 12 -8 12 -5 0 -10 9 -10 19 0 11 -5 23 -10 26 -6 4 -8
11 -5 16 4 5 2 9 -2 9 -5 0 -14 15 -21 33 -6 17 -23 44 -37 60 -14 15 -24 27
-21 27 3 0 -10 16 -30 35 -19 19 -39 35 -44 35 -6 0 -10 4 -10 9 0 10 -36 24
-62 24 -10 0 -18 3 -18 7 0 4 -20 7 -45 6 -25 0 -45 -3 -45 -6z"/>
</g>
</svg>
